<svg width="256" height="256" viewBox="0 0 256 256" fill="none" xmlns="http://www.w3.org/2000/svg">
<circle cx="128" cy="128" r="128" fill="#221814"/>
<circle cx="128" cy="128" r="112" fill="white"/>
<circle cx="128" cy="128" r="104" fill="#221814"/>
<path d="M59.1053 159.406C54.5322 140.998 44.9088 102.874 43 97.6483H90.7193L91.9123 111.306H63.2807L66.2632 124.964H91.9123L93.7018 136.247H68.0526L71.0351 149.905H97.8772L99.0702 159.406H59.1053Z" fill="#EFEEEC"/>
<path fill-rule="evenodd" clip-rule="evenodd" d="M97.8772 98.836L103.842 159.406C110.801 159.604 125.674 159.881 129.491 159.406C129.74 159.375 130.011 159.343 130.3 159.308C135.552 158.674 147.07 157.284 152.158 151.093C155.737 154.062 164.804 160 172.439 160C181.982 160 197.491 159.406 201.07 157.625L208.825 127.34H182.579L180.789 138.028H191.526L189.14 149.905C187.55 150.301 183.295 150.974 179 150.499C173.632 149.905 162.298 146.936 162.895 134.466C163.491 121.995 173.632 110.119 189.14 110.712C201.547 111.188 205.842 112.89 206.439 113.682L213 100.617C208.427 98.836 197.367 96.6235 189.14 97.0545C188.322 97.0974 187.525 97.1341 186.747 97.1699C176.742 97.6307 169.702 97.9549 157.526 109.525C154.942 105.368 144.404 97.0545 122.93 97.0545C100.761 97.0545 98.9357 98.2696 98.3001 98.6928C98.166 98.782 98.0849 98.836 97.8772 98.836ZM117.561 151.093L115.772 110.712C116.766 110.317 120.186 109.525 125.912 109.525C133.07 109.525 143.807 111.9 145.596 129.121C147.386 146.342 131.877 149.905 128.298 150.499C125.435 150.974 119.947 151.093 117.561 151.093Z" fill="#EFEEEC"/>
</svg>
